{
  "project_info": {
    "project_number": "299541941969",
    "project_id": "firebase-handshakesworld"
  },
  "client": [
    {
      "client_info": {
        "mobilesdk_app_id": "1:299541941969:android:f8d1c1a9bebc17e0",
        "android_client_info": {
          "package_name": "com.handshakes.jocker.handshakesworld"
        }
      },
      "oauth_client": [
        {
          "client_id": "299541941969-dhfrrignl29vlq6ek060b8kadmbln2qc.apps.googleusercontent.com",
          "client_type": 3
        },
        {
          "client_id": "299541941969-atldegpa6li7ccj0ukrg0gi7nveqam7i.apps.googleusercontent.com",
          "client_type": 1,
          "android_info": {
            "package_name": "com.handshakes.jocker.handshakesworld",
            "certificate_hash": "1926409eaa354d2a1e9119c73199a4a5b9deb967"
          }
        }
      ],
      "api_key": [
        {
          "current_key": "AIzaSyA0jJXIpt2JrX9WxQTnYqYd5a2Z95sYayc"
        }
      ],
      "services": {
        "analytics_service": {
          "status": 2,
          "analytics_property": {
            "tracking_id": "UA-110425029-1"
          }
        },
        "appinvite_service": {
          "status": 1,
          "other_platform_oauth_client": []
        },
        "ads_service": {
          "status": 1
        }
      }
    }
  ],
  "configuration_version": "1"
}